{
    "Rije\u010d: ": "apokalipti\u010dki1 ",
    "Vrsta rije\u010di: ": "Pridjev",
    "Sklanjanje: ": "apokalipti\u010dki, apokalipti\u010dka, apokalipti\u010dko; G -og(a)",
    "Definicija: ": " koji se odnosi na Apokalipsu i apoka\u00adlipsu [apokalipti\u010dki tekstovi / motivi / strahovi] "
}