{
    "Rije\u010d: ": "aristokratizacija ",
    "Vrsta rije\u010di: ": "Imenica \u017eenskog roda",
    "Sklanjanje: ": "aristokratizacija; G -e",
    "Definicija: ": "proces do\u00adbivanja aristokratskih {aristokratski1 (2)} osobina [ari\u00adstokratizacija dru\u0161tva]"
}