{
    "Rije\u010d: ": "aritmetika ",
    "Vrsta rije\u010di: ": "Imenica \u017eenskog roda",
    "Sklanjanje: ": "aritmetika; G -e, DL -ici",
    "Definicija: ": {
        "1.": "mat grana ma\u00adtematike koja prou\u010dava ra\u010dunske operacije s brojevima; umije\u0107e ra\u010dunanja [Aritmetika se oduvijek nazivala kra\u00adljicom matematike.; biti bolji u aritmetici nego u algebri] \u21e8  ra\u010dunstvo - meton knjiga iz koje se u\u010di aritmetika ["
    }
}