{
    "Rije\u010d: ": "aritmi\u010dan ",
    "Vrsta rije\u010di: ": "Pridjev",
    "Sklanjanje: ": "aritmi\u010dan, aritmi\u010dna, aritmi\u010dno; G -\u010dna; odr -\u010dnl, G -\u010dnog(a)",
    "Dolazi od: ": [
        "aritmija"
    ],
    "Definicija: ": "koji odra\u017eava aritmiju a. {aritmi- ja (1)} [aritmi\u010dan ples]; b. {aritmija (2)} [aritmi\u010dan rad srca"
}