{
    "Rije\u010d: ": "atometar ",
    "Vrsta rije\u010di: ": "Imenica mu\u0161kog roda",
    "Sklanjanje: ": "atometar; G -tra, I -trom; mn N -tri, G -tara",
    "Dolazi od: ": [
        "ATO-, -METAR"
    ],
    "Definicija: ": "fiz jedinica duljine, 10-18 dio metra (znak: am) "
}