{
    "Rije\u010d: ": "atomaran ",
    "Vrsta rije\u010di: ": "Pridjev",
    "Sklanjanje: ": "atomaran, atomarana, atomarano; G -ma; odr -ml, G -mog(a)",
    "Definicija: ": {
        "I.": " koji se sastoji od atoma [atomaran spoj /plin/kisik; atomarna otopina];",
        "II.": " (atomarni) koji se odnosi na atome [atomarna struktura; atomame for\u00admule] \u21e8 atomski (1)"
    }
}